<svg xmlns="http://www.w3.org/2000/svg" width="16" height="21" viewBox="0 0 16 21">
  <path fill="#FFF" fill-rule="evenodd" d="M150,20.9842188 C147.502611,20.9842188 145.478098,18.8250039 145.478098,16.1614063 C145.478098,13.4978535 147.502611,11.3385938 150,11.3385938 C152.497431,11.3385938 154.521944,13.4978535 154.521944,16.1614063 C154.521944,18.8250039 152.497431,20.9842188 150,20.9842188 M153.826173,24.50825 L146.173953,24.50825 C145.981678,24.50825 145.826089,24.3421289 145.826089,24.1372852 C145.826089,23.9324414 145.98172,23.7663203 146.173953,23.7663203 L153.826089,23.7663203 C154.018322,23.7663203 154.173911,23.9324414 154.173911,24.1372852 C154.173911,24.3421289 154.018364,24.50825 153.826173,24.50825 M153.826173,26.3630742 L146.173953,26.3630742 C145.981678,26.3630742 145.826089,26.1969531 145.826089,25.9920645 C145.826089,25.7872656 145.98172,25.6211445 146.173953,25.6211445 L153.826089,25.6211445 C154.018322,25.6211445 154.173911,25.7872656 154.173911,25.9920645 C154.173911,26.1969531 154.018364,26.3630742 153.826173,26.3630742 M152.434841,28.2178984 L147.565243,28.2178984 C147.37301,28.2178984 147.217463,28.0517773 147.217463,27.8469336 C147.217463,27.6420898 147.373052,27.4759687 147.565243,27.4759687 L152.434841,27.4759687 C152.627117,27.4759687 152.782622,27.6420898 152.782622,27.8469336 C152.782622,28.0517773 152.627117,28.2178984 152.434841,28.2178984 M157.478856,9 C157.766658,9 158,9.22722656 158,9.50748633 L158,29.4925137 C158,29.7727734 157.766658,30 157.478856,30 L142.521186,30 C142.233342,30 142,29.7727734 142,29.4925137 L142,9.50748633 C142,9.22722656 142.233342,9 142.521186,9 L157.478856,9 Z M149.987857,20.1808809 C151.329698,20.1808809 152.525428,19.5518848 153.300425,18.3345918 C152.90425,17.5991758 152.269046,17.0312285 151.498345,16.6699219 C151.097031,17.051668 150.567884,17.2837793 149.987857,17.2837793 C149.40783,17.2837793 148.878683,17.051668 148.477411,16.6699219 C147.706668,17.0312285 147.071464,17.5991758 146.675289,18.3345918 C147.450286,19.5518848 148.646058,20.1808809 149.987857,20.1808809 Z M151.701445,14.5885117 C151.701445,13.5796113 150.934576,12.7617188 149.988615,12.7617188 C149.042654,12.7617188 148.275828,13.5796113 148.275828,14.5885117 C148.275828,15.5974121 149.042654,16.4153047 149.988615,16.4153047 C150.934576,16.4153047 151.701445,15.5974121 151.701445,14.5885117 Z" transform="translate(-142 -9)"/>
</svg>
